:08000000900304000000000061
:04005400180200008E
:100400005420EF00A3202000008041001000BA001B
:1004100000000600BF090000A70D00001211000037
:1004200083130000531B00002922000057440000E2
:100430004200F8003600F8005400F800801F7800F1
:10044000200020000C000900B01F78002202AE003E
:10045000FEFF37003011800000F0B70004808000FC
:100460007024E10024003A006E30EF0074838000B5
:100470007020E10009003D00748380006220B80014
:10048000A400210084024000804AEB0000C0B300B9
:10049000904298006E30EC00F4FF3700048080003A
:1004A0007124E100140032002202AE00FEFF37008A
:1004B0003011800000F0B700048080007124E1005A
:1004C0000C003E00048080007024E100090032002E
:1004D00000D0BF000160EF004100DD00A40021005A
:1004E0008402400010C0B300804A780000C0B3000E
:1004F00090429800E9FF37000168A900A0012000A0
:100500000C0009004F1078004F0078005400F900EB
:100510003600F9004200F90000400600E4FA2B0022
:100520008470880015EEA90030000900000000006A
:10053000E4FA2B008470880015EEA8000630EF0066
:10054000000006000000E0004220AF000C00370071
:100550006B11090000000000FE3F090000000000D0
:10056000FE3F090000000000FE3F090000000000FF
:10057000FE3F0900000000000000E900F4FF3A001F
:10058000000006006030EF006090BF00F482800041
:100590000020E1000E003400E4FA2B008470880093
:1005A000140EA8005C90BF00A20202000000000030
:1005B000E4FA2B0084708800140EA9005C90BF0040
:1005C000A2020200000000006030EC00EEFF3700E5
:1005D00000000600851F7800C3E8A8002168A80075
:1005E0005A30EF00D48280007020E10009003D0005
:1005F000D48280006220B800A40021008402400060
:10060000804AEB0000C0B300904298005A30EC00E2
:10061000F4FF37001021EF000CA1EF000EA1EF0056
:1006200084002800840888001E21EF001AA1EF0032
:1006300004002800F4088800E4FA2B008470880085
:1006400014CEA9008E020200000000004406200023
:10065000E482880054002000F4828800C202020074
:1006600000000000CF02780000000600E4FA2B0032
:100670008470880015CEA900080009000000000061
:10068000E4FA2B008470880015CEA8000800090049
:10069000000000000630EC00348080007020E10093
:1006A00001003A000630EF00000006008E02020052
:1006B000000000000690BF005A10E3000300320063
:1006C0003603020000000000FAFF370000000600B9
:1006D0005A30EF00D4828000031020000418E1009B
:1006E0000E0034005C30EF00E48280000310200034
:1006F0000418E100070034005AD0BF002322AF00E5
:10070000FEFF370024E2B7002562EF005C30EC000A
:10071000F5FF37005A30EC00EEFF3700000006000E
:100720000FF82200F0FF220020A0B7000000000018
:100730004044240020428800C1E8A8006004200052
:1007400042E7B7007005200042E7B70042C7A900A2
:10075000C0022000C4A6B7000011200088A6B70080
:100760006004200042E7B7007005200042E7B700B0
:1007700042C7A80014002000243A88008402200008
:10078000343A88000E00FC00301020003174200044
:1007900082072000A309200082487800834878005F
:1007A00043E7B7004800DE00217420006204200007
:1007B00073052000824878008348780080487800DC
:1007C000040028000411880004402000141188004F
:1007D0002062A900240020004411880041E2A90001
:1007E000E4FA2B0084708800E4FA2B0084708800FF
:1007F000E4FA2B008470880040C2A9003403200072
:100800001412880041E2A8000421EF0074002000C7
:1008100014088800040028002408880064002100CF
:1008200004488800B40020001448880034002000E8
:100830003448880000F0EF00F49B2000148088000A
:100840000430EF000630EF000830EF002A30EF00F0
:100850003830EF003A30EF000E2EEF001E2EEF0082
:10086000EA02020000000000048080007024E10021
:100870000900310000D0BF0008F0B7000970EF0098
:1008800000D0BF005AF0B7005B70EF0056030200C3
:100890000000000000F0EF00048080007424E100FC
:1008A0000B003900048080007A24E10008003E003B
:1008B000048080000960EF00F40252004128DD004E
:1008C000000202000000000002B0B70000F0EF00DC
:1008D0000480800083022000041CE1001F003E0011
:1008E0000480800013032000041CE1001B0036007C
:1008F0003C30EF0014002000F48188002400200028
:10090000048288005400200014828800A400200083
:1009100024828800E401200034828800C40320007F
:10092000448288008407200054828800C41220007A
:1009300064828800048080000960EF008302200048
:10094000830252004128DD00C4032100040040005E
:10095000901F78000410F90000F0EF000480800080
:1009600023032000041CE10008003E0004808000F6
:10097000A3032000041CE1000400360000D0BF00E7
:100980002AF0B7002B70EF0000F0EF000480800029
:1009900014C4B20003003A00680302000000000023
:1009A00000F0EF000480800024C4B20007003A0089
:1009B000D4072000E482880044002000F4828800EC
:1009C000C20202000000000000F0EF00048080007E
:1009D000C4C3B20011013A00E4FA2B00847088000D
:1009E000148EA900E4FA2B008470880014CEA900AC
:1009F000E4FA2B0084708800142EA9003E00090040
:100A000000000000E4FA2B0084708800142EA80077
:100A1000E4FA2B0084708800148EA8008E02020075
:100A200000000000548180003483B20004003A00CA
:100A30000810F8005A10F9005603020000000000E8
:100A4000548180004483B20005003A000690BF0044
:100A50000810E30002003A00360302000000000024
:100A6000548180005483B2000A003A003480800030
:100A70006220B800A4002100040040009002780029
:100A80000500E00003003A00360302000000000009
:100A9000F6FF370044062000E4828800240020008E
:100AA000F4828800C2020200000000000621EF006C
:100AB0000A21EF001421EF004E30EF004E90BF00EE
:100AC000248080000020E10002003C000410E200CD
:100AD000D1003A004E30EC0004808000D4C3B20054
:100AE00001003A00CC00370035088000460880003D
:100AF000C44220000620E100BE00390003003E0091
:100B000004D821000520E100BA003600E4FA2B00E9
:100B100084708800148EA9003E00090000000000C7
:100B2000E4FA2B0084708800148EA80004808000F2
:100B3000D4C3B20001003A00AE003700A50880001F
:100B4000248080000520E10001003400FBFF370015
:100B500054818000230320000418E10060003C0061
:100B600054818000530320000418E1005C0034002D
:100B7000E4FA2B008470880012AEAE00010037004A
:100B8000FBFF370040C2A9004002AE000200370060
:100B900048C2BF00FCFF370020C1B30048E2B700E5
:100BA0004002AE00FEFF370040C2A9004002AE0086
:100BB0000200370048C2BF00FCFF37004862EF0068
:100BC0004002AE00FEFF370048C2BF002CF0B70065
:100BD00040C2A9004002AE000200370048C2BF0078
:100BE000FCFF37004862EF004002AE00FEFF370016
:100BF00048C2BF002DF0B70040C2A9004002AE00BD
:100C00000200370048C2BF00FCFF37004862EF0017
:100C10004002AE00FEFF370048C2BF002EF0B70012
:100C20002CD0BF002322AF00FEFF370024E2B70024
:100C30002562EF002DD0BF002322AF00FEFF37005A
:100C400024E2B7002562EF002ED0BF002322AF00C0
:100C5000FEFF370024E2B7002562EF0054818000D8
:100C60003483B2001D003200548180002483B2001E
:100C700003003A00360302000000000017003700AE
:100C8000548180004483B20008003A003603020019
:100C9000000000000690BF000810E30002003A00C8
:100CA00036030200000000000C0037005481800071
:100CB0005483B20009003A0036030200000000002D
:100CC000348080006220B800A400210004004000AD
:100CD000900278000500E000F7FF32004000370086
:100CE000548180006483B2000F003A003830EC0079
:100CF0004220AF003A30EC00D4818000F30720009E
:100D00000418E10007003C0004003500C4818000A5
:100D1000F3FF2F000418E100020031003830EF002B
:100D20003A30EF0019003700548180007483B2001C
:100D300003003A003830EF003A30EF00130037007C
:100D4000548180008483B2000E003A00C481800088
:100D5000F3FF2F000418E10006003A00D481800060
:100D6000F487B20003003A003830EF003A30EF0069
:100D70000300370038B0EF00F4072000D48188006A
:100D8000020037003830EF003A30EF0038D0BF00B3
:100D90000AE0B700054078002322AF00FEFF3700CD
:100DA00024E2B7002562EF0038D0BF000AE0B700A8
:100DB000054078002322AF00FEFF370024E2B70091
:100DC0002562EF0038D0BF000AE0B7000540780088
:100DD0002322AF00FEFF370024E2B7002562EF00B8
:100DE000A50880001480800084825200A508880035
:100DF0003DFF3700350880004608800004D82100F8
:100E000084825200C442200004035B00350888003D
:100E10005608880029FF370000F0EF0092FE3700E7
:040E20000040FE0090
:020000040001F9
:105FE0008B0000FFF80000FF7F0000FF260000FF8D
:105FF000C00000FF030000FF000000FF000000FFE2
:00000001FF
;DSPIC33EP64MC202
;CRC=E8BF  CREATED="20-fev-18 10:03"
